{
    "issues": [
        {
            "assignee": "evzijst", 
            "component": "component", 
            "content": "Some **issue**.", 
            "content_updated_on": "2013-03-21T03:44:04.660869+00:00", 
            "created_on": "2013-01-22T15:55:13.573339+00:00", 
            "edited_on": "2013-01-22T15:55:13.573339+00:00", 
            "id": 1, 
            "kind": "bug", 
            "milestone": "M2", 
            "priority": "major", 
            "reporter": "evzijst", 
            "status": "resolved", 
            "title": "Test", 
            "updated_on": "2013-03-21T04:26:26.733922+00:00", 
            "version": "1.0", 
            "watchers": [
                "detkin", 
                "evzijst"
            ],
 			"voters": [
                "bnguyen", 
                "aprentice"
            ]
        }
    ], 
    "comments": [
        {
            "content": "hej", 
            "created_on": "2013-01-26T01:00:55.994000+00:00", 
            "id": 388, 
            "issue": 1, 
            "updated_on": "2013-01-26T01:00:55.994000+00:00", 
            "user": "evzijst"
        }, 
        {
            "content": "This is now fixed with unicode: Erik van Z\u0133st", 
            "created_on": "2013-03-21T04:26:26.749032+00:00", 
            "id": 396, 
            "issue": 1, 
            "updated_on": "2013-01-26T01:00:55.994000+00:00", 
            "user": "evzijst"
        }
    ], 
    "attachments": [
        {
            "filename": "cow_small.png", 
            "issue": 1, 
            "path": "attachments/cow_small.png", 
            "user": "evzijst"
        }
    ], 
    "logs": [
        {
            "changed_from": "/evzijst/bitbucket/issue-attachment/1/evzijst/bitbucket/1359162055.6/1/cow_small.png", 
            "changed_to": "cow_small.png", 
            "comment": 388, 
            "created_on": "2013-01-26T01:00:55.993900+00:00", 
            "field": "attachment", 
            "issue": 1, 
            "user": "evzijst"
        }, 
        {
            "changed_from": "new", 
            "changed_to": "resolved", 
            "comment": 396, 
            "created_on": "2013-03-21T04:26:26.814711+00:00", 
            "field": "status", 
            "issue": 1, 
            "user": "evzijst"
        }
    ], 
    "meta": {
        "default_assignee": "evzijst", 
        "default_component": "ui", 
        "default_kind": "bug", 
        "default_milestone": "m1", 
        "default_version": "1.0"
    }, 
    "components": [
        {
            "name": "api"
        }, 
        {
            "name": "ui"
        }
    ], 
    "milestones": [
        {
            "name": "M1"
        }, 
        {
            "name": "M2"
        }, 
        {
            "name": "M3"
        }
    ], 
    "versions": [
        {
            "name": "0.9"
        }, 
        {
            "name": "1.0"
        }
    ]
}